{
    "telemetry.machineId": "868101972c51dbb255c2f4601df7f3fa2cfbc15242a2320920cc0404d5fba8ce",
    "theme": "vs-dark",
    "themeBackground": "#1e1e1e",
    "pickerWorkingDir": "/home/aluno/Desktop",
    "openedPathsList": {
        "workspaces2": [
            "file:///home/aluno/Desktop/projeto_final_ps2019.1"
        ],
        "files2": []
    }
}